module gitlab.com/netikras/k6x-files

go 1.20

require go.k6.io/k6 v0.46.0

require (
	github.com/dlclark/regexp2 v1.9.0 // indirect
	github.com/dop251/goja v0.0.0-20230621100801-7749907a8a20 // indirect
	github.com/fatih/color v1.15.0 // indirect
	github.com/go-sourcemap/sourcemap v2.1.4-0.20211119122758-180fcef48034+incompatible // indirect
	github.com/google/pprof v0.0.0-20230207041349-798e818bf904 // indirect
	github.com/josharian/intern v1.0.0 // indirect
	github.com/mailru/easyjson v0.7.7 // indirect
	github.com/mattn/go-colorable v0.1.13 // indirect
	github.com/mattn/go-isatty v0.0.19 // indirect
	github.com/mstoykov/atlas v0.0.0-20220811071828-388f114305dd // indirect
	github.com/onsi/ginkgo v1.16.5 // indirect
	github.com/onsi/gomega v1.28.0 // indirect
	github.com/serenize/snaker v0.0.0-20201027110005-a7ad2135616e // indirect
	github.com/sirupsen/logrus v1.9.3 // indirect
	github.com/spf13/afero v1.1.2 // indirect
	golang.org/x/sys v0.11.0 // indirect
	golang.org/x/text v0.12.0 // indirect
	golang.org/x/time v0.3.0 // indirect
	gopkg.in/guregu/null.v3 v3.3.0 // indirect
)
